[gd_resource type="Resource" script_class="Item" load_steps=2 format=3 uid="uid://b5rhem8aowvdi"]

[ext_resource type="Script" path="res://systems/resources/item.gd" id="1_vfpsr"]

[resource]
script = ExtResource("1_vfpsr")
name = "Berries"
description = "Red berries. It's safe to eat."
stack_limit = 1
type = 0
properties = Array[int]([5, 10, 14])
