[gd_resource type="Resource" script_class="Item" load_steps=2 format=3 uid="uid://bcdruepi2uk1a"]

[ext_resource type="Script" path="res://systems/resources/item.gd" id="1_vnj1y"]

[resource]
script = ExtResource("1_vnj1y")
name = "Coin of the Dead"
description = "A coin, weathered by time and the elements. Why is it here?"
stack_limit = 15
type = 3
properties = Array[int]([5, 7, 13])
