[gd_resource type="Resource" script_class="Item" load_steps=2 format=3 uid="uid://cpnaoapuncon3"]

[ext_resource type="Script" path="res://systems/resources/item.gd" id="1_v8vb8"]

[resource]
script = ExtResource("1_v8vb8")
name = "Hagstone"
description = "A curious looking rock. Where did the hole in the middle come from?"
stack_limit = 1
type = 3
properties = Array[int]([1, 5, 13])
