[gd_resource type="Resource" script_class="Item" load_steps=2 format=3 uid="uid://hddvtrgkwmpp"]

[ext_resource type="Script" path="res://systems/resources/item.gd" id="1_812go"]

[resource]
script = ExtResource("1_812go")
name = "Water"
description = "Clean, drinkable water. Yes, you can drink it, trust me, it is safe to consume."
stack_limit = 5
type = 4
properties = Array[int]([2, 6, 12])
