[gd_scene load_steps=6 format=3 uid="uid://c3emcedowj47n"]

[ext_resource type="Script" path="res://ui/screens/run_interface.gd" id="1_s0fvu"]
[ext_resource type="PackedScene" uid="uid://cxwv31sq2gk1c" path="res://ui/components/inventory/inventory_menu.tscn" id="2_fa0h6"]

[sub_resource type="InputEventAction" id="InputEventAction_bxoov"]
action = &"ui_inventory"

[sub_resource type="Shortcut" id="Shortcut_o4t5c"]
events = [SubResource("InputEventAction_bxoov")]

[sub_resource type="PlaceholderTexture2D" id="PlaceholderTexture2D_hcs1q"]
size = Vector2(100, 100)

[node name="RunInterface" type="Control"]
layout_mode = 3
anchors_preset = 15
anchor_right = 1.0
anchor_bottom = 1.0
grow_horizontal = 2
grow_vertical = 2
script = ExtResource("1_s0fvu")

[node name="InventoryButton" type="TextureButton" parent="."]
layout_mode = 1
anchors_preset = 2
anchor_top = 1.0
anchor_bottom = 1.0
offset_top = -100.0
offset_right = 100.0
grow_vertical = 0
shortcut = SubResource("Shortcut_o4t5c")
shortcut_in_tooltip = false
texture_normal = SubResource("PlaceholderTexture2D_hcs1q")

[node name="InventoryMenu" parent="." instance=ExtResource("2_fa0h6")]
visible = false
layout_mode = 1
offset_left = -252.0
offset_top = -77.0
offset_right = 252.0
offset_bottom = 77.0

[connection signal="pressed" from="InventoryButton" to="." method="_on_inventory_button_pressed"]
